1st KM/test/build/beeper.vcd
$date
	Wed Sep 11 19:27:53 2024
$end
$version
	Icarus Verilog
$end
$timescale
	100ps
$end
$scope module beeper_tb $end
$var wire 1 ! q $end
$var reg 1 " clk $end
$var reg 1 # enable $end
$var reg 2 $ tone [1:0] $end
$scope module beeper $end
$var wire 1 " clk $end
$var wire 1 # enable $end
$var wire 2 % tone [1:0] $end
$var parameter 32 & WIDTH $end
$var reg 2 ' ctr [1:0] $end
$var reg 1 ! q $end
$upscope $end
$upscope $end
$enddefinitions $end
$comment Show the parameter values. $end
$dumpall
b10 &
$end
#0
$dumpvars
b0 '
b11 %
b11 $
0#
0"
1!
$end
#100
1"
#200
0"
#300
b1 '
1#
1"
#400
0"
#500
b10 '
1"
#600
0"
#700
b11 '
1"
#800
0"
#900
b0 '
0!
1"
#1000
0"
#1100
b1 '
1"
#1200
0"
#1300
b10 '
1"
#1400
0"
#1500
b11 '
1"
#1600
0"
#1700
b0 '
1!
1"
#1800
0"
#1900
b1 '
1"
#2000
0"
#2100
b10 '
1"
#2200
0"
#2300
b11 '
1"
#2400
0"
#2500
b0 '
0!
1"
#2600
0"
#2700
b1 '
1"
#2800
0"
#2900
b10 '
1"
#3000
0"
#3100
b11 '
1"
#3200
0"
#3300
b10 $
b10 %
b0 '
1!
1"
#3400
0"
#3500
b1 '
1"
#3600
0"
#3700
b10 '
1"
#3800
0"
#3900
b0 '
0!
1"
#4000
0"
#4100
b1 '
1"
#4200
0"
#4300
b10 '
1"
#4400
0"
#4500
b0 '
1!
1"
#4600
0"
#4700
b1 '
1"
#4800
0"
#4900
b10 '
1"
#5000
0"
#5100
b0 '
0!
1"
#5200
0"
#5300
b1 '
1"
#5400
0"
#5500
b10 '
1"
#5600
0"
#5700
b0 '
1!
1"
